k_corveld = {
	1014.1.1 = {
		holder = sun_elvish0001	#Jaher
	}
}

d_nathalaire = {
	909.6.30 = {
		holder = orstengard_0002
	}
	943.12.28 = {
		holder = orstengard_0004
	}
	961.10.8 = {
		holder = orstengard_0005
	}
	994.3.6 = {
		holder = orstengard_0006
	}
	1007.9.2 = {
		holder = orstengard_0007
	}
}

c_nathalaire = {
	909.6.30 = {
		holder = orstengard_0002
	}
	943.12.28 = {
		holder = orstengard_0004
	}
	961.10.8 = {
		holder = orstengard_0005
	}
	994.3.6 = {
		holder = orstengard_0006
	}
	1007.9.2 = {
		holder = orstengard_0007
	}
}