﻿
# idk_what_this_is_for = {
	# type = character
	
	# text = {
		# trigger = {
			# inspiration = {
				# has_inspiration_type = inspiration_goblin_quest
			# }
		# }
		# localization_key = complete_the_quest
	# }
# }
